{
  "extends": "tslint:recommended",
  "rules": {
    "curly": [true, "ignore-same-line"],
    "eofline": false,
    "forin": false,
    "interface-name": [true, "never-prefix"],
    "max-line-length": [true, 180],
    "member-access": [true, "no-public"],
    "member-ordering": [
      true,
      {
        "order": [
          "static-field",
          "instance-field",
          "constructor",
          "public-instance-method",
          "protected-instance-method",
          "private-instance-method"
        ]
      }
    ],
    "no-bitwise": false,
    "no-consecutive-blank-lines": [true, 2],
    "no-empty": false,
    "no-shadowed-variable": false,
    "prefer-for-of": false,
    "quotemark": [true, "avoid-escape"],
    "unified-signatures": true,
    "variable-name": [
      true,
      "ban-keywords",
      "check-format",
      "allow-leading-underscore",
      "allow-snake-case"
    ]
  }
}
